<?xml version="1.0" encoding="iso-8859-1"?>
<!-- Generator: Adobe Illustrator 17.0.0, SVG Export Plug-In . SVG Version: 6.00 Build 0)  -->
<!DOCTYPE svg PUBLIC "-//W3C//DTD SVG 1.1//EN" "http://www.w3.org/Graphics/SVG/1.1/DTD/svg11.dtd">
<svg version="1.1" id="Layer_1" xmlns="http://www.w3.org/2000/svg" xmlns:xlink="http://www.w3.org/1999/xlink" x="0px" y="0px"
	 width="603.125px" height="150.921px" viewBox="0 0 603.125 150.921" style="enable-background:new 0 0 603.125 150.921;"
	 xml:space="preserve">
<g id="XMLID_385_">
	<g id="XMLID_313_">
		
			<ellipse id="XMLID_384_" transform="matrix(0.9488 0.3159 -0.3159 0.9488 16.9737 -31.9078)" style="fill:#2F6691;" cx="106.904" cy="36.4" rx="30.943" ry="31.673"/>
		<circle id="XMLID_383_" style="fill:#4A97C5;" cx="121.746" cy="113.798" r="31.819"/>
		<circle id="XMLID_382_" style="fill:#2E499D;" cx="41.425" cy="84.747" r="31.964"/>
		<g id="XMLID_361_">
			<path id="XMLID_380_" style="fill:#2C3765;" d="M155.889,45.44l-11.466,38.066c4.577,2.767,12.833,9.458,14.467,22.396
				l18.215-60.461H155.889z"/>
			<path id="XMLID_378_" style="fill:#2C3765;" d="M227.712,45.44l-8.162,27.078L205.713,45.44h-18.18l-19.021,63.158h19.99
				l8.792-29.156l14.946,29.156h16.441l19.021-63.158H227.712z"/>
			<path id="XMLID_376_" style="fill:#2C3765;" d="M254.661,45.44l-4.846,16.102h12.599l-14.175,47.056h20.352l14.175-47.056h12.611
				l4.846-16.102H254.661z"/>
			<path id="XMLID_372_" style="fill:#2C3765;" d="M349.895,50.426c-3.211-3.316-8.606-4.986-16.195-4.986h-26.517l-19.033,63.158
				h20.516l6.749-22.407l4.904,22.407h22.699l-7.263-26.12c3.608-1.39,6.866-3.608,9.785-6.667
				c2.931-3.059,5.021-6.691,6.294-10.894C353.736,58.564,353.094,53.742,349.895,50.426z M331.971,66.469
				c-1.238,4.098-4.32,6.142-9.248,6.142h-3.386l3.655-12.109h3.386c2.44,0,4.133,0.444,5.114,1.343
				C332.474,62.733,332.625,64.274,331.971,66.469z"/>
			<path id="XMLID_368_" style="fill:#2C3765;" d="M410.484,108.598l-2.978-63.158h-22.944l-41.031,63.158h20.259l6.854-11.501
				h18.612l-0.082,11.501H410.484z M379.763,81.871l9.598-16.008l-0.035,16.008H379.763z"/>
			<path id="XMLID_366_" style="fill:#2C3765;" d="M475.242,45.44l-8.162,27.078L453.244,45.44h-18.169l-19.033,63.158h20.002
				l8.781-29.156l14.958,29.156h16.429l19.033-63.158H475.242z"/>
			<path id="XMLID_364_" style="fill:#2C3765;" d="M539.487,61.367l4.799-15.927h-38.778l-19.033,63.158h39.653l4.787-15.915
				h-19.301l2.324-7.706h15.471l4.752-15.74h-15.483l2.37-7.87H539.487z"/>
			<path id="XMLID_362_" style="fill:#2C3765;" d="M550.895,45.44l-4.857,16.102h12.611l-14.175,47.056h20.34L579,61.542h12.599
				l4.846-16.102H550.895z"/>
		</g>
		<g id="XMLID_357_">
			<path id="XMLID_358_" style="fill:#2C3765;" d="M93.522,69.17c-17.903-7.251-26.569-27.715-19.318-45.617
				s27.715-26.569,45.617-19.318s26.569,27.715,19.318,45.617C131.888,67.754,111.424,76.42,93.522,69.17z M118.068,8.563
				C102.552,2.279,84.817,9.79,78.533,25.305s1.227,33.251,16.742,39.535s33.251-1.227,39.535-16.742S133.583,14.847,118.068,8.563z
				"/>
		</g>
		<g id="XMLID_353_">
			<path id="XMLID_354_" style="fill:#2C3765;" d="M108.135,146.687c-17.903-7.251-26.569-27.715-19.318-45.617
				s27.715-26.569,45.617-19.318s26.569,27.715,19.318,45.617C146.501,145.272,126.037,153.938,108.135,146.687z M132.681,86.08
				c-15.516-6.284-33.251,1.227-39.535,16.742c-6.284,15.516,1.227,33.251,16.742,39.535c15.516,6.284,33.251-1.227,39.535-16.742
				C155.707,110.1,148.196,92.364,132.681,86.08z"/>
		</g>
		<g id="XMLID_349_">
			<path id="XMLID_350_" style="fill:#2C3765;" d="M28.561,117.974C10.658,110.724,1.992,90.26,9.243,72.357
				S36.957,45.788,54.86,53.039s26.569,27.715,19.318,45.617C66.927,116.559,46.463,125.225,28.561,117.974z M53.107,57.368
				c-15.516-6.284-33.251,1.227-39.535,16.742s1.227,33.251,16.742,39.535c15.516,6.284,33.251-1.227,39.535-16.742
				S68.622,63.652,53.107,57.368z"/>
		</g>
		<g id="XMLID_346_">
			<g id="XMLID_347_">
				<polygon id="XMLID_348_" style="fill:#2C3765;" points="73.96,83.856 73.302,78.055 86.763,76.527 91.59,64.608 97.001,66.799 
					90.87,81.937 				"/>
			</g>
		</g>
		<g id="XMLID_344_">
			<polygon id="XMLID_345_" style="fill:#2C3765;" points="97.014,92.28 86.277,79.898 90.432,75.796 101.169,88.178 			"/>
		</g>
		<path id="XMLID_333_" style="fill:#FFFFFF;" d="M55.671,77.215c1.122-0.965,1.834-2.394,1.834-3.986c0-2.9-2.359-5.26-5.26-5.26
			c-2.9,0-5.26,2.359-5.26,5.26c0,1.597,0.717,3.03,1.844,3.995c-0.529,0.277-1.025,0.619-1.476,1.02
			c-0.63-0.467-1.32-0.858-2.056-1.159c1.037-0.961,1.688-2.334,1.688-3.856c0-2.9-2.359-5.26-5.26-5.26
			c-2.9,0-5.26,2.359-5.26,5.26c0,1.522,0.651,2.895,1.688,3.856c-0.736,0.301-1.426,0.692-2.056,1.159
			c-0.451-0.401-0.947-0.743-1.476-1.02c1.128-0.965,1.844-2.398,1.844-3.995c0-2.9-2.359-5.26-5.26-5.26s-5.26,2.359-5.26,5.26
			c0,1.592,0.712,3.021,1.834,3.986c-2.379,1.229-4.008,3.696-4.008,6.533c0,0.446,0,3.762,0,4.208c0,0.455,0.293,0.858,0.725,1
			l4.325,1.414c0.182,0.514,0.373,0.983,0.578,1.416l-1.996,4.012c-0.201,0.405-0.122,0.893,0.198,1.213l2.966,2.966
			c0.32,0.32,0.808,0.399,1.213,0.198l4.012-1.997c0.432,0.204,0.9,0.395,1.413,0.577l1.416,4.391
			c0.14,0.435,0.545,0.729,1.001,0.729h4.208c0.457,0,0.861-0.295,1.001-0.729l1.416-4.391c0.513-0.182,0.981-0.373,1.413-0.577
			l4.012,1.997c0.405,0.201,0.893,0.122,1.213-0.198l2.966-2.966c0.32-0.32,0.399-0.808,0.198-1.213l-1.997-4.012
			c0.204-0.433,0.396-0.902,0.578-1.416l4.325-1.414c0.432-0.141,0.725-0.545,0.725-1c0-0.446,0-3.762,0-4.208
			C59.678,80.911,58.05,78.444,55.671,77.215z M49.089,73.229c0-1.74,1.416-3.156,3.156-3.156s3.156,1.416,3.156,3.156
			c0,1.74-1.416,3.156-3.156,3.156S49.089,74.969,49.089,73.229z M38.57,73.229c0-1.74,1.416-3.156,3.156-3.156
			s3.156,1.416,3.156,3.156c0,1.74-1.416,3.156-3.156,3.156S38.57,74.969,38.57,73.229z M49.014,84.8c-0.409,0-14.213,0-14.577,0
			c0.512-3.564,3.585-6.311,7.288-6.311S48.502,81.237,49.014,84.8z M41.726,89.008c-1.322,0-2.525-0.84-2.975-2.111h5.95
			C44.253,88.16,43.056,89.008,41.726,89.008z M36.572,86.904c0.489,2.398,2.614,4.208,5.154,4.208c2.54,0,4.665-1.817,5.154-4.215
			h2.134c-0.512,3.564-3.585,6.318-7.288,6.318s-6.776-2.748-7.288-6.311H36.572z M28.051,73.229c0-1.74,1.416-3.156,3.156-3.156
			c1.74,0,3.156,1.416,3.156,3.156c0,1.74-1.416,3.156-3.156,3.156C29.466,76.385,28.051,74.969,28.051,73.229z M25.877,83.748
			c0-2.9,2.391-5.26,5.33-5.26c1.23,0,2.406,0.429,3.34,1.199c-1.21,1.407-2.014,3.172-2.23,5.113h-6.44V83.748z M57.574,87.193
			l-4.1,1.341c-0.32,0.104-0.57,0.355-0.674,0.675c-0.264,0.814-0.544,1.496-0.855,2.083c-0.159,0.3-0.163,0.657-0.012,0.961
			l1.893,3.804l-1.896,1.896l-3.804-1.893c-0.303-0.151-0.661-0.146-0.961,0.012c-0.588,0.311-1.269,0.591-2.083,0.855
			c-0.321,0.104-0.573,0.356-0.677,0.678l-1.343,4.166h-2.675l-1.343-4.166c-0.104-0.321-0.355-0.574-0.677-0.678
			c-0.814-0.264-1.496-0.544-2.083-0.855c-0.3-0.159-0.657-0.163-0.961-0.012l-3.804,1.893l-1.896-1.896l1.893-3.804
			c0.151-0.304,0.146-0.661-0.012-0.961c-0.311-0.588-0.591-1.269-0.855-2.083c-0.104-0.32-0.354-0.571-0.674-0.675l-4.1-1.341
			v-0.289h6.44c0.531,4.778,4.592,8.415,9.409,8.415c4.829,0,8.88-3.649,9.409-8.415h6.44V87.193z M57.574,84.8h-6.44
			c-0.216-1.94-1.02-3.706-2.23-5.113c0.934-0.769,2.11-1.199,3.34-1.199c2.939,0,5.33,2.359,5.33,5.26V84.8z"/>
		<g id="XMLID_326_">
			<path id="XMLID_329_" style="fill:#FFFFFF;" d="M105.116,113.806h2.288l-0.124,2.877c-0.011,0.26,0.124,0.504,0.349,0.633
				c0.107,0.061,0.226,0.092,0.345,0.092c0.131,0,0.263-0.037,0.377-0.111l5.391-3.489h0.683c-0.141,0.439-0.218,0.907-0.218,1.393
				v9.605c0,2.516,2.047,4.563,4.563,4.563h1.971l4.347,4.439c0.133,0.136,0.313,0.209,0.496,0.209c0.077,0,0.155-0.013,0.23-0.039
				c0.254-0.089,0.434-0.318,0.461-0.587l0.399-4.022h10.071c2.517,0,4.564-2.047,4.564-4.563v-9.605
				c0-2.516-2.048-4.563-4.564-4.563h-12.935c0.045-0.237,0.068-0.478,0.068-0.724v-7.946c0-2.148-1.747-3.895-3.895-3.895h-14.869
				c-2.147,0-3.894,1.747-3.894,3.895v7.946C101.222,112.059,102.969,113.806,105.116,113.806z M136.747,112.024
				c1.751,0,3.175,1.424,3.175,3.174v9.605c0,1.75-1.424,3.174-3.175,3.174h-10.7c-0.357,0-0.656,0.271-0.691,0.626l-0.314,3.168
				l-3.511-3.585c-0.131-0.133-0.309-0.209-0.496-0.209h-2.263c-1.75,0-3.174-1.424-3.174-3.174v-9.605
				c0-1.75,1.424-3.174,3.174-3.174L136.747,112.024L136.747,112.024z M102.611,101.966c0-1.382,1.124-2.506,2.506-2.506h14.869
				c1.382,0,2.506,1.124,2.506,2.506v7.946c0,0.249-0.036,0.491-0.106,0.724h-3.614c-1.47,0-2.779,0.699-3.614,1.782h-1.619
				c-0.134,0-0.265,0.039-0.377,0.111l-4.435,2.87l0.097-2.258c0.008-0.189-0.061-0.373-0.192-0.51
				c-0.131-0.137-0.312-0.214-0.501-0.214h-3.013c-1.382,0-2.506-1.124-2.506-2.505V101.966z"/>
			<path id="XMLID_328_" style="fill:#FFFFFF;" d="M110.216,104.226c0.384,0,0.694-0.311,0.694-0.694
				c0-0.458,0.184-0.882,0.517-1.196c0.333-0.313,0.77-0.47,1.229-0.442c0.809,0.05,1.482,0.723,1.532,1.532
				c0.038,0.611-0.262,1.188-0.783,1.507c-0.97,0.594-1.549,1.62-1.549,2.746c0,0.384,0.311,0.694,0.694,0.694
				c0.384,0,0.694-0.311,0.694-0.694c0-0.638,0.331-1.222,0.886-1.561c0.96-0.588,1.514-1.652,1.444-2.778
				c-0.094-1.52-1.312-2.737-2.832-2.832c-0.846-0.052-1.651,0.237-2.267,0.816c-0.607,0.571-0.955,1.375-0.955,2.208
				C109.521,103.915,109.832,104.226,110.216,104.226z"/>
			<path id="XMLID_327_" style="fill:#FFFFFF;" d="M127.76,122.087c0.384,0,0.694-0.311,0.694-0.694v-5.877
				c0-0.384-0.311-0.694-0.694-0.694s-0.694,0.311-0.694,0.694v5.877C127.065,121.777,127.376,122.087,127.76,122.087z"/>
		</g>
		<circle id="XMLID_325_" style="fill:#FFFFFF;" cx="128.197" cy="124.796" r="0.694"/>
		<circle id="XMLID_324_" style="fill:#FFFFFF;" cx="112.988" cy="110.544" r="0.694"/>
		<path id="XMLID_315_" style="fill:#FFFFFF;" d="M89.738,50.022l2.967,2.967l0,0c1.227,1.227,3.224,1.227,4.451,0l6.745-6.747
			c1.176,0.56,2.618,0.349,3.582-0.614c0.56-0.56,0.864-1.28,0.912-2.015l1.673,1.666c-0.336,1.877,0.056,3.8,1.109,5.36
			c2.06,3.052,5.958,4.122,9.269,2.548c0.308-0.146,0.525-0.433,0.583-0.769c0.058-0.336-0.051-0.679-0.292-0.92l-2.407-2.387
			v-1.427h1.504l2.388,2.33c0.241,0.241,0.584,0.35,0.92,0.292c0.336-0.058,0.623-0.275,0.769-0.583
			c1.334-2.806,0.765-6.157-1.417-8.338c-1.701-1.701-4.139-2.454-6.488-2.036l-4.093-4.086l6.47-6.47l0.742,0.742
			c0.518,0.518,1.394,0.359,1.697-0.308l3.709-8.16c0.181-0.398,0.096-0.867-0.213-1.176l-1.484-1.484
			c-0.309-0.309-0.778-0.394-1.176-0.213l-8.16,3.709c-0.666,0.303-0.825,1.179-0.308,1.697l0.742,0.742l-6.47,6.47l-4.086-4.093
			c0.418-2.348-0.335-4.787-2.036-6.488c-2.181-2.181-5.532-2.751-8.338-1.417c-0.308,0.146-0.525,0.433-0.583,0.769
			c-0.058,0.336,0.051,0.679,0.292,0.92l2.4,2.388v1.504h-1.497l-2.387-2.407c-0.241-0.241-0.584-0.35-0.92-0.292
			c-0.336,0.058-0.623,0.276-0.769,0.583c-1.575,3.312-0.503,7.21,2.548,9.269c1.56,1.053,3.484,1.445,5.36,1.109l1.666,1.673
			c-0.734,0.049-1.455,0.353-2.015,0.913c-0.972,0.972-1.173,2.418-0.616,3.583l-6.743,6.746
			C88.508,46.801,88.508,48.791,89.738,50.022z M121.865,20.404l0.456,0.456l-2.782,6.12c-0.097-0.097-3.566-3.566-3.794-3.794
			L121.865,20.404z M104.515,35.242l2.967,2.967c0.409,0.409,0.409,1.075,0,1.484l-0.742,0.742l-4.451-4.451l0.742-0.742
			C103.442,34.832,104.105,34.832,104.515,35.242z M114.929,41.239c0.265,0.265,0.651,0.368,1.013,0.272
			c1.806-0.483,3.749,0.038,5.069,1.358c1.175,1.175,1.693,2.828,1.464,4.432l-1.464-1.464c-0.197-0.197-0.464-0.32-0.742-0.32
			h-2.526c0,0-0.001,0-0.001,0h-0.44c-0.58,0-1.069,0.47-1.069,1.049v0.453c0,0,0,0.001,0,0.001v2.526
			c0,0.278,0.111,0.545,0.307,0.742l1.487,1.467c-1.953,0.282-3.943-0.559-5.11-2.288c-0.816-1.208-1.072-2.798-0.686-4.253
			c0.096-0.361-0.008-0.746-0.272-1.011l-3.012-3.005l0.02-0.02c0.967-0.967,1.171-2.412,0.614-3.582l0.849-0.849L114.929,41.239z
			 M108.225,35.984l-1.484-1.484l8.675-8.675l1.484,1.484L108.225,35.984z M97.512,30.494c-1.455,0.386-3.045,0.129-4.253-0.686
			c-1.729-1.167-2.571-3.157-2.288-5.11l1.467,1.417c0.197,0.197,0.464,0.307,0.742,0.307h2.98c0.579,0,1.049-0.47,1.049-1.049
			v-2.917c0-0.278-0.111-0.545-0.307-0.742l-1.477-1.464c1.603-0.229,3.257,0.289,4.432,1.464c1.32,1.32,1.841,3.263,1.358,5.069
			c-0.097,0.362,0.007,0.748,0.272,1.013l4.493,4.5l-0.848,0.848c-1.163-0.557-2.609-0.359-3.583,0.616l-0.02,0.02l-3.005-3.012
			C98.259,30.502,97.874,30.398,97.512,30.494z M98.581,36.726c0.41-0.41,1.074-0.41,1.484,0l5.935,5.935
			c0.409,0.409,0.409,1.075,0,1.484c-0.409,0.409-1.075,0.409-1.484,0l0,0l-5.935-5.935C98.171,37.799,98.171,37.136,98.581,36.726z
			 M91.222,47.054l6.617-6.619c0.574,0.574,3.963,3.963,4.451,4.451l-6.617,6.619c-0.409,0.409-1.075,0.409-1.484,0l-2.967-2.967
			C90.812,48.128,90.812,47.464,91.222,47.054z"/>
		<path id="XMLID_314_" style="fill:#FFFFFF;" d="M95.673,48.538l2.908-2.91c0.41-0.41,0.41-1.074,0-1.484
			c-0.41-0.41-1.074-0.41-1.484,0l-2.908,2.91c-0.41,0.41-0.41,1.074,0,1.484C94.599,48.948,95.263,48.948,95.673,48.538z"/>
	</g>
	<g id="XMLID_119_">
		<path id="XMLID_310_" style="fill:#1C1C21;" d="M180.557,119.786c-0.203,1.043-0.634,1.98-1.296,2.811
			c-0.662,0.83-1.498,1.481-2.509,1.952c-1.011,0.471-2.102,0.706-3.272,0.706h-2.53l-2.377,7.133h-3.039l5.918-17.763h4.298
			c0.737,0,1.438,0.092,2.102,0.274c0.664,0.182,1.225,0.477,1.685,0.883c0.459,0.407,0.79,0.939,0.993,1.596
			C180.733,118.033,180.742,118.837,180.557,119.786z M177.475,119.812c0.107-0.551,0.07-1.038-0.11-1.463
			c-0.18-0.424-0.499-0.746-0.956-0.966c-0.458-0.22-1.042-0.331-1.754-0.331h-0.966l-1.923,5.773h1.665
			c0.72,0,1.367-0.129,1.938-0.388c0.572-0.259,1.036-0.611,1.394-1.055C177.121,120.937,177.359,120.413,177.475,119.812z"/>
		<path id="XMLID_308_" style="fill:#1C1C21;" d="M188.222,123.792c-0.146-0.212-0.297-0.369-0.456-0.471
			c-0.158-0.102-0.369-0.153-0.631-0.153c-0.856,0-1.852,0.806-2.987,2.416l-2.288,6.802h-2.784l3.923-11.749h2.81l-0.753,2.111
			c0.749-0.805,1.396-1.392,1.938-1.761c0.542-0.369,1.072-0.553,1.589-0.553c0.288,0,0.559,0.057,0.812,0.172
			c0.253,0.115,0.469,0.282,0.646,0.502L188.222,123.792z"/>
		<path id="XMLID_305_" style="fill:#1C1C21;" d="M200.216,125.673c-0.252,1.297-0.746,2.486-1.482,3.567
			c-0.735,1.081-1.632,1.928-2.687,2.543c-1.057,0.615-2.144,0.922-3.263,0.922c-0.991,0-1.833-0.229-2.524-0.687
			c-0.691-0.457-1.168-1.104-1.429-1.939c-0.261-0.835-0.291-1.774-0.089-2.816c0.245-1.263,0.746-2.433,1.502-3.509
			c0.756-1.077,1.667-1.916,2.733-2.518c1.066-0.602,2.15-0.903,3.253-0.903c0.974,0,1.801,0.22,2.478,0.661
			c0.677,0.441,1.148,1.07,1.413,1.888C200.387,123.7,200.419,124.631,200.216,125.673z M197.357,125.533
			c0.168-0.864,0.106-1.57-0.186-2.117c-0.292-0.547-0.777-0.82-1.456-0.82c-0.611,0-1.2,0.222-1.77,0.668
			c-0.57,0.445-1.07,1.055-1.5,1.831c-0.43,0.776-0.724,1.567-0.88,2.372c-0.107,0.551-0.106,1.049,0.002,1.494
			c0.108,0.445,0.306,0.789,0.594,1.03s0.631,0.363,1.03,0.363c0.602,0,1.192-0.212,1.77-0.636c0.578-0.424,1.079-1.007,1.503-1.748
			C196.888,127.227,197.185,126.415,197.357,125.533z"/>
		<path id="XMLID_303_" style="fill:#1C1C21;" d="M212.228,123.143c-0.325-0.119-0.655-0.206-0.992-0.261
			c-0.337-0.055-0.751-0.082-1.243-0.082c-0.831,0-1.633,0.193-2.407,0.578c-0.774,0.386-1.438,0.918-1.989,1.596
			c-0.551,0.678-0.902,1.403-1.052,2.174c-0.194,1-0.069,1.776,0.375,2.327c0.444,0.551,1.166,0.826,2.166,0.826
			c0.576,0,1.113-0.068,1.61-0.203c0.497-0.135,1.102-0.36,1.816-0.674l-0.827,2.62c-1.187,0.441-2.375,0.661-3.561,0.661
			c-1.085,0-2.005-0.229-2.759-0.687c-0.755-0.457-1.28-1.112-1.576-1.964c-0.297-0.852-0.34-1.82-0.129-2.905
			c0.242-1.246,0.794-2.395,1.655-3.446c0.861-1.051,1.933-1.876,3.215-2.473c1.281-0.598,2.626-0.896,4.033-0.896
			c0.415,0,0.851,0.028,1.306,0.083c0.455,0.055,0.856,0.129,1.203,0.222L212.228,123.143z"/>
		<path id="XMLID_301_" style="fill:#1C1C21;" d="M215.499,120.638h2.785l-2.173,6.536c-0.202,0.602-0.327,0.994-0.375,1.176
			c-0.048,0.182-0.092,0.375-0.131,0.578c-0.084,0.432-0.045,0.787,0.118,1.062c0.163,0.276,0.43,0.413,0.803,0.413
			c0.364,0,0.865-0.176,1.501-0.528c0.636-0.351,1.374-0.922,2.214-1.71l2.53-7.527h2.785l-3.923,11.749h-2.798l0.63-1.869
			c-0.819,0.679-1.588,1.193-2.309,1.545c-0.721,0.352-1.421,0.528-2.099,0.528c-0.628,0-1.14-0.142-1.538-0.426
			c-0.398-0.284-0.67-0.674-0.815-1.169c-0.146-0.496-0.154-1.075-0.025-1.736c0.117-0.602,0.313-1.305,0.588-2.111L215.499,120.638
			z"/>
		<path id="XMLID_299_" style="fill:#1C1C21;" d="M234.188,123.792c-0.146-0.212-0.297-0.369-0.456-0.471
			c-0.158-0.102-0.369-0.153-0.631-0.153c-0.856,0-1.852,0.806-2.987,2.416l-2.288,6.802h-2.784l3.923-11.749h2.81l-0.753,2.111
			c0.749-0.805,1.396-1.392,1.938-1.761c0.542-0.369,1.072-0.553,1.589-0.553c0.288,0,0.559,0.057,0.812,0.172
			c0.253,0.115,0.469,0.282,0.646,0.502L234.188,123.792z"/>
		<path id="XMLID_296_" style="fill:#1C1C21;" d="M243.605,132.387h-2.81l0.415-1.221l-0.01-0.013l-0.036-0.013
			c-1.242,0.984-2.414,1.475-3.516,1.475c-0.737,0-1.37-0.212-1.898-0.635c-0.528-0.424-0.894-1.007-1.097-1.749
			c-0.204-0.742-0.219-1.557-0.046-2.448c0.29-1.492,0.89-2.814,1.801-3.967c0.911-1.153,2.042-2.022,3.393-2.607
			c1.351-0.585,2.845-0.877,4.481-0.877c1.111,0,2.188,0.127,3.232,0.381L243.605,132.387z M244.046,122.723
			c-0.249-0.025-0.493-0.038-0.73-0.038c-0.704,0-1.364,0.106-1.982,0.318c-0.618,0.212-1.18,0.532-1.687,0.96
			c-0.507,0.428-0.954,0.975-1.342,1.64c-0.388,0.666-0.649,1.346-0.784,2.041c-0.163,0.839-0.11,1.513,0.161,2.021
			c0.27,0.509,0.714,0.763,1.333,0.763c0.398,0,0.861-0.132,1.386-0.394c0.526-0.263,1.043-0.615,1.553-1.055L244.046,122.723z"/>
		<path id="XMLID_293_" style="fill:#1C1C21;" d="M262.951,114.624l-5.936,17.662c-1.204,0.263-2.497,0.394-3.879,0.394
			c-1.229,0-2.268-0.216-3.116-0.649c-0.849-0.432-1.444-1.053-1.787-1.863c-0.343-0.809-0.413-1.736-0.211-2.778
			c0.278-1.432,0.851-2.678,1.718-3.738c0.867-1.06,1.957-1.869,3.269-2.428c1.312-0.56,2.748-0.84,4.308-0.84h0.89l1.921-5.76
			H262.951z M257.41,122.723h-0.521c-1.06,0-2.003,0.184-2.829,0.553c-0.826,0.369-1.509,0.897-2.049,1.583
			c-0.54,0.687-0.9,1.488-1.077,2.403c-0.186,0.958-0.033,1.721,0.458,2.289c0.491,0.568,1.246,0.852,2.263,0.852
			c0.525,0,0.939-0.034,1.24-0.102L257.41,122.723z"/>
		<path id="XMLID_291_" style="fill:#1C1C21;" d="M264.071,120.638h2.785l-2.172,6.536c-0.202,0.602-0.327,0.994-0.375,1.176
			c-0.048,0.182-0.092,0.375-0.131,0.578c-0.084,0.432-0.045,0.787,0.118,1.062c0.163,0.276,0.43,0.413,0.803,0.413
			c0.364,0,0.865-0.176,1.501-0.528c0.636-0.351,1.374-0.922,2.214-1.71l2.53-7.527h2.785l-3.923,11.749h-2.798l0.63-1.869
			c-0.819,0.679-1.588,1.193-2.309,1.545c-0.721,0.352-1.421,0.528-2.099,0.528c-0.628,0-1.14-0.142-1.538-0.426
			c-0.398-0.284-0.67-0.674-0.815-1.169c-0.146-0.496-0.154-1.075-0.025-1.736c0.117-0.602,0.313-1.305,0.588-2.111L264.071,120.638
			z"/>
		<path id="XMLID_289_" style="fill:#1C1C21;" d="M282.76,123.792c-0.146-0.212-0.297-0.369-0.456-0.471
			c-0.158-0.102-0.369-0.153-0.631-0.153c-0.856,0-1.852,0.806-2.987,2.416l-2.288,6.802h-2.784l3.923-11.749h2.81l-0.753,2.111
			c0.749-0.805,1.396-1.392,1.938-1.761c0.542-0.369,1.072-0.553,1.589-0.553c0.288,0,0.559,0.057,0.812,0.172
			s0.469,0.282,0.646,0.502L282.76,123.792z"/>
		<path id="XMLID_286_" style="fill:#1C1C21;" d="M289.464,120.638l-3.949,11.749h-2.797l3.923-11.749H289.464z M293.561,114.865
			l-4.498,4.107h-1.666l2.832-4.107H293.561z"/>
		<path id="XMLID_283_" style="fill:#1C1C21;" d="M298.663,132.387h-2.81l0.415-1.221l-0.01-0.013l-0.036-0.013
			c-1.242,0.984-2.414,1.475-3.516,1.475c-0.737,0-1.37-0.212-1.898-0.635c-0.528-0.424-0.894-1.007-1.097-1.749
			c-0.204-0.742-0.219-1.557-0.046-2.448c0.29-1.492,0.89-2.814,1.801-3.967c0.911-1.153,2.042-2.022,3.393-2.607
			c1.351-0.585,2.845-0.877,4.481-0.877c1.111,0,2.188,0.127,3.232,0.381L298.663,132.387z M299.103,122.723
			c-0.25-0.025-0.493-0.038-0.73-0.038c-0.704,0-1.364,0.106-1.982,0.318c-0.618,0.212-1.18,0.532-1.687,0.96
			c-0.507,0.428-0.954,0.975-1.342,1.64c-0.388,0.666-0.649,1.346-0.784,2.041c-0.163,0.839-0.109,1.513,0.161,2.021
			c0.27,0.509,0.714,0.763,1.333,0.763c0.398,0,0.861-0.132,1.386-0.394s1.043-0.615,1.553-1.055L299.103,122.723z"/>
		<path id="XMLID_281_" style="fill:#1C1C21;" d="M328.787,117.523c-1.363-0.314-2.616-0.471-3.761-0.471
			c-1.331,0-2.598,0.187-3.803,0.559c-1.204,0.373-2.277,0.909-3.218,1.609c-0.941,0.699-1.721,1.519-2.341,2.46
			c-0.619,0.941-1.027,1.916-1.223,2.924c-0.206,1.06-0.167,1.994,0.117,2.804c0.283,0.809,0.792,1.439,1.528,1.888
			c0.735,0.449,1.628,0.674,2.679,0.674c0.5,0,1.006-0.028,1.516-0.083c0.511-0.055,1.053-0.184,1.627-0.388l1.077-3.255h-2.848
			l0.765-2.302h5.862l-2.566,7.579c-0.775,0.322-1.671,0.585-2.69,0.788c-1.019,0.203-2.071,0.305-3.155,0.305
			c-1.306,0-2.458-0.189-3.457-0.565c-0.999-0.377-1.803-0.918-2.412-1.621c-0.61-0.703-1.02-1.547-1.231-2.53
			c-0.211-0.984-0.206-2.047,0.016-3.192c0.214-1.102,0.612-2.181,1.195-3.236c0.582-1.055,1.317-2.026,2.206-2.912
			c0.888-0.886,1.881-1.631,2.978-2.238c1.097-0.606,2.318-1.078,3.664-1.418c1.346-0.339,2.815-0.508,4.409-0.508
			c1.246,0,2.558,0.14,3.937,0.42L328.787,117.523z"/>
		<path id="XMLID_278_" style="fill:#1C1C21;" d="M335.59,120.333c0.882,0,1.628,0.206,2.239,0.616
			c0.611,0.411,1.032,0.994,1.263,1.749c0.23,0.755,0.254,1.607,0.069,2.556c-0.082,0.424-0.212,0.873-0.389,1.348h-7.476
			c-0.109,0.297-0.187,0.568-0.234,0.813c-0.122,0.628-0.103,1.176,0.055,1.647c0.158,0.47,0.438,0.831,0.839,1.081
			c0.4,0.25,0.881,0.375,1.44,0.375c0.551,0,1.18-0.116,1.886-0.35c0.706-0.233,1.526-0.587,2.457-1.062l-0.952,2.48
			c-1.501,0.746-2.905,1.119-4.21,1.119c-1.06,0-1.949-0.233-2.668-0.699c-0.719-0.466-1.212-1.136-1.479-2.009
			c-0.267-0.873-0.291-1.873-0.072-3.001c0.235-1.212,0.716-2.333,1.442-3.363c0.726-1.03,1.601-1.837,2.626-2.422
			C333.45,120.625,334.505,120.333,335.59,120.333z M336.529,124.859l0.039-0.203c0.132-0.678,0.069-1.216-0.189-1.615
			c-0.258-0.398-0.695-0.598-1.314-0.598c-1.221,0-2.255,0.806-3.101,2.416H336.529z"/>
		<path id="XMLID_276_" style="fill:#1C1C21;" d="M349.498,132.387h-2.785l2.172-6.536c0.161-0.483,0.274-0.831,0.336-1.042
			c0.062-0.212,0.118-0.445,0.168-0.7c0.084-0.432,0.045-0.788-0.116-1.068c-0.162-0.28-0.425-0.42-0.79-0.42
			c-0.373,0-0.877,0.176-1.514,0.528c-0.637,0.352-1.374,0.922-2.214,1.71l-2.518,7.527h-2.797l3.923-11.749h2.797l-0.633,1.882
			c0.82-0.687,1.591-1.206,2.312-1.558c0.721-0.351,1.421-0.528,2.099-0.528c0.644,0,1.165,0.144,1.563,0.432
			c0.398,0.288,0.664,0.682,0.8,1.182s0.141,1.072,0.016,1.716c-0.03,0.153-0.06,0.297-0.09,0.432s-0.067,0.28-0.109,0.432
			c-0.042,0.152-0.095,0.326-0.158,0.521c-0.064,0.195-0.141,0.437-0.23,0.725L349.498,132.387z"/>
		<path id="XMLID_273_" style="fill:#1C1C21;" d="M361.033,120.333c0.882,0,1.628,0.206,2.239,0.616
			c0.611,0.411,1.032,0.994,1.263,1.749c0.23,0.755,0.254,1.607,0.069,2.556c-0.082,0.424-0.212,0.873-0.389,1.348h-7.476
			c-0.109,0.297-0.187,0.568-0.234,0.813c-0.122,0.628-0.103,1.176,0.055,1.647c0.158,0.47,0.438,0.831,0.839,1.081
			c0.4,0.25,0.881,0.375,1.44,0.375c0.551,0,1.18-0.116,1.886-0.35c0.706-0.233,1.526-0.587,2.457-1.062l-0.952,2.48
			c-1.501,0.746-2.905,1.119-4.21,1.119c-1.06,0-1.949-0.233-2.668-0.699c-0.719-0.466-1.212-1.136-1.479-2.009
			c-0.267-0.873-0.291-1.873-0.072-3.001c0.235-1.212,0.716-2.333,1.442-3.363c0.726-1.03,1.601-1.837,2.626-2.422
			C358.893,120.625,359.948,120.333,361.033,120.333z M361.972,124.859l0.04-0.203c0.132-0.678,0.069-1.216-0.189-1.615
			c-0.258-0.398-0.695-0.598-1.314-0.598c-1.221,0-2.255,0.806-3.101,2.416H361.972z"/>
		<path id="XMLID_271_" style="fill:#1C1C21;" d="M374.247,123.792c-0.146-0.212-0.297-0.369-0.456-0.471
			c-0.158-0.102-0.369-0.153-0.631-0.153c-0.856,0-1.852,0.806-2.987,2.416l-2.288,6.802H365.1l3.923-11.749h2.81l-0.753,2.111
			c0.749-0.805,1.396-1.392,1.938-1.761c0.542-0.369,1.072-0.553,1.589-0.553c0.288,0,0.559,0.057,0.812,0.172
			c0.253,0.115,0.469,0.282,0.646,0.502L374.247,123.792z"/>
		<path id="XMLID_268_" style="fill:#1C1C21;" d="M383.664,132.387h-2.81l0.415-1.221l-0.01-0.013l-0.036-0.013
			c-1.242,0.984-2.414,1.475-3.516,1.475c-0.737,0-1.37-0.212-1.898-0.635c-0.528-0.424-0.894-1.007-1.097-1.749
			c-0.204-0.742-0.219-1.557-0.046-2.448c0.29-1.492,0.89-2.814,1.801-3.967c0.911-1.153,2.042-2.022,3.393-2.607
			c1.351-0.585,2.845-0.877,4.481-0.877c1.111,0,2.188,0.127,3.232,0.381L383.664,132.387z M384.105,122.723
			c-0.25-0.025-0.493-0.038-0.73-0.038c-0.704,0-1.364,0.106-1.982,0.318c-0.618,0.212-1.18,0.532-1.687,0.96
			c-0.507,0.428-0.954,0.975-1.342,1.64c-0.388,0.666-0.649,1.346-0.784,2.041c-0.163,0.839-0.11,1.513,0.161,2.021
			c0.27,0.509,0.714,0.763,1.333,0.763c0.398,0,0.861-0.132,1.386-0.394c0.526-0.263,1.043-0.615,1.553-1.055L384.105,122.723z"/>
		<path id="XMLID_266_" style="fill:#1C1C21;" d="M395.788,114.624l-5.944,17.763h-2.823l5.956-17.763H395.788z"/>
		<path id="XMLID_263_" style="fill:#1C1C21;" d="M416.208,114.624l-5.936,17.662c-1.204,0.263-2.497,0.394-3.879,0.394
			c-1.229,0-2.268-0.216-3.116-0.649c-0.849-0.432-1.444-1.053-1.787-1.863c-0.343-0.809-0.413-1.736-0.211-2.778
			c0.278-1.432,0.851-2.678,1.718-3.738c0.867-1.06,1.957-1.869,3.269-2.428c1.312-0.56,2.748-0.84,4.308-0.84h0.89l1.921-5.76
			H416.208z M410.667,122.723h-0.521c-1.06,0-2.003,0.184-2.829,0.553c-0.826,0.369-1.509,0.897-2.049,1.583
			c-0.54,0.687-0.9,1.488-1.077,2.403c-0.186,0.958-0.033,1.721,0.458,2.289c0.491,0.568,1.246,0.852,2.263,0.852
			c0.525,0,0.939-0.034,1.24-0.102L410.667,122.723z"/>
		<path id="XMLID_260_" style="fill:#1C1C21;" d="M421.952,120.333c0.882,0,1.628,0.206,2.239,0.616
			c0.611,0.411,1.032,0.994,1.263,1.749c0.23,0.755,0.254,1.607,0.069,2.556c-0.082,0.424-0.212,0.873-0.389,1.348h-7.476
			c-0.109,0.297-0.187,0.568-0.234,0.813c-0.122,0.628-0.103,1.176,0.055,1.647c0.158,0.47,0.438,0.831,0.839,1.081
			c0.4,0.25,0.881,0.375,1.44,0.375c0.551,0,1.18-0.116,1.886-0.35c0.706-0.233,1.526-0.587,2.457-1.062l-0.952,2.48
			c-1.501,0.746-2.905,1.119-4.21,1.119c-1.06,0-1.949-0.233-2.668-0.699c-0.719-0.466-1.212-1.136-1.479-2.009
			c-0.267-0.873-0.291-1.873-0.072-3.001c0.235-1.212,0.716-2.333,1.442-3.363c0.726-1.03,1.601-1.837,2.626-2.422
			C419.812,120.625,420.867,120.333,421.952,120.333z M422.891,124.859l0.04-0.203c0.132-0.678,0.069-1.216-0.189-1.615
			c-0.258-0.398-0.695-0.598-1.314-0.598c-1.221,0-2.255,0.806-3.101,2.416H422.891z"/>
		<path id="XMLID_258_" style="fill:#1C1C21;" d="M441.83,114.624l-5.944,17.763h-2.823l5.956-17.763H441.83z"/>
		<path id="XMLID_255_" style="fill:#1C1C21;" d="M449.008,132.387h-2.81l0.415-1.221l-0.01-0.013l-0.036-0.013
			c-1.242,0.984-2.414,1.475-3.516,1.475c-0.737,0-1.37-0.212-1.898-0.635c-0.528-0.424-0.894-1.007-1.097-1.749
			c-0.204-0.742-0.219-1.557-0.046-2.448c0.29-1.492,0.89-2.814,1.801-3.967c0.911-1.153,2.042-2.022,3.393-2.607
			c1.351-0.585,2.845-0.877,4.481-0.877c1.111,0,2.188,0.127,3.232,0.381L449.008,132.387z M449.449,122.723
			c-0.249-0.025-0.493-0.038-0.73-0.038c-0.704,0-1.365,0.106-1.982,0.318c-0.618,0.212-1.18,0.532-1.687,0.96
			c-0.507,0.428-0.954,0.975-1.342,1.64c-0.388,0.666-0.649,1.346-0.784,2.041c-0.163,0.839-0.11,1.513,0.161,2.021
			c0.27,0.509,0.714,0.763,1.333,0.763c0.398,0,0.861-0.132,1.386-0.394s1.043-0.615,1.553-1.055L449.449,122.723z"/>
		<path id="XMLID_252_" style="fill:#1C1C21;" d="M474.108,132.387h-3.255l-1.131-3.929c-0.33-1.094-0.581-1.829-0.754-2.206
			c-0.172-0.377-0.352-0.668-0.536-0.871c-0.185-0.203-0.408-0.345-0.667-0.426c-0.26-0.08-0.615-0.121-1.064-0.121h-0.89
			l-2.51,7.553h-3.039l5.944-17.763h4.514c1.11,0,2.023,0.136,2.737,0.407c0.714,0.271,1.265,0.633,1.652,1.087
			c0.386,0.454,0.626,0.977,0.719,1.57c0.092,0.593,0.076,1.212-0.049,1.856c-0.211,1.085-0.747,2.045-1.609,2.88
			c-0.862,0.835-1.925,1.388-3.19,1.659l-0.02,0.102c0.335,0.195,0.598,0.467,0.789,0.814c0.191,0.348,0.345,0.746,0.461,1.195
			L474.108,132.387z M472.623,119.544c0.15-0.771,0.001-1.367-0.447-1.786c-0.448-0.42-1.177-0.629-2.185-0.629h-1.59l-1.757,5.315
			h1.513c0.84,0,1.573-0.123,2.202-0.369c0.628-0.246,1.135-0.585,1.52-1.017C472.263,120.625,472.511,120.121,472.623,119.544z"/>
		<path id="XMLID_249_" style="fill:#1C1C21;" d="M483.672,120.333c0.882,0,1.628,0.206,2.239,0.616
			c0.611,0.411,1.032,0.994,1.263,1.749c0.23,0.755,0.254,1.607,0.069,2.556c-0.082,0.424-0.212,0.873-0.389,1.348h-7.476
			c-0.109,0.297-0.187,0.568-0.234,0.813c-0.122,0.628-0.103,1.176,0.055,1.647c0.158,0.47,0.438,0.831,0.839,1.081
			c0.4,0.25,0.881,0.375,1.44,0.375c0.551,0,1.18-0.116,1.886-0.35c0.706-0.233,1.526-0.587,2.457-1.062l-0.952,2.48
			c-1.501,0.746-2.905,1.119-4.21,1.119c-1.06,0-1.949-0.233-2.668-0.699c-0.719-0.466-1.212-1.136-1.479-2.009
			c-0.267-0.873-0.291-1.873-0.072-3.001c0.235-1.212,0.716-2.333,1.442-3.363c0.726-1.03,1.601-1.837,2.626-2.422
			C481.532,120.625,482.587,120.333,483.672,120.333z M484.611,124.859l0.04-0.203c0.132-0.678,0.069-1.216-0.189-1.615
			c-0.258-0.398-0.695-0.598-1.314-0.598c-1.221,0-2.255,0.806-3.101,2.416H484.611z"/>
		<path id="XMLID_246_" style="fill:#1C1C21;" d="M501.229,125.648c-0.166,0.856-0.488,1.704-0.965,2.543
			c-0.477,0.839-1.085,1.594-1.825,2.263c-0.741,0.67-1.598,1.212-2.573,1.628c-0.975,0.415-2.047,0.623-3.217,0.623
			c-0.068,0-0.33-0.013-0.787-0.038c-0.457-0.025-0.692-0.051-0.704-0.076l-1.925,5.786h-2.823l4.761-14.165
			c-0.436,0.28-0.806,0.557-1.109,0.833c-0.304,0.276-0.558,0.524-0.761,0.744c-0.204,0.22-0.37,0.398-0.498,0.534
			c-0.128,0.135-0.243,0.203-0.345,0.203c-0.102,0-0.139-0.068-0.113-0.203c0.051-0.263,0.246-0.645,0.584-1.145
			c0.339-0.5,0.76-1.008,1.263-1.526c0.503-0.517,1.043-0.974,1.621-1.373l1.438-4.323h2.81l-0.915,2.683
			c0.616-0.203,1.331-0.305,2.144-0.305c0.941,0,1.749,0.225,2.425,0.674c0.675,0.449,1.146,1.081,1.412,1.895
			C501.393,123.715,501.427,124.631,501.229,125.648z M498.358,125.699c0.194-1,0.091-1.797-0.311-2.39
			c-0.402-0.593-1.039-0.89-1.912-0.89c-0.314,0-0.594,0.023-0.84,0.07c-0.246,0.046-0.528,0.142-0.844,0.286l-2.501,7.502
			c0.063,0.025,0.203,0.049,0.419,0.07c0.216,0.021,0.426,0.032,0.63,0.032c0.873,0,1.675-0.19,2.406-0.572
			c0.731-0.381,1.364-0.947,1.9-1.697C497.841,127.358,498.192,126.555,498.358,125.699z"/>
		<path id="XMLID_243_" style="fill:#1C1C21;" d="M505.305,120.638h2.785l-2.172,6.536c-0.202,0.602-0.327,0.994-0.375,1.176
			c-0.048,0.182-0.092,0.375-0.131,0.578c-0.084,0.432-0.045,0.787,0.118,1.062c0.163,0.276,0.43,0.413,0.803,0.413
			c0.364,0,0.865-0.176,1.501-0.528c0.636-0.351,1.374-0.922,2.214-1.71l2.53-7.527h2.785l-3.923,11.749h-2.798l0.63-1.869
			c-0.819,0.679-1.588,1.193-2.309,1.545c-0.721,0.352-1.421,0.528-2.099,0.528c-0.628,0-1.14-0.142-1.538-0.426
			c-0.398-0.284-0.67-0.674-0.815-1.169c-0.146-0.496-0.154-1.075-0.025-1.736c0.117-0.602,0.313-1.305,0.588-2.111L505.305,120.638
			z M515.747,114.865l-4.498,4.107h-1.665l2.832-4.107H515.747z"/>
		<path id="XMLID_240_" style="fill:#1C1C21;" d="M527.532,125.673c-0.198,1.017-0.566,1.971-1.103,2.861
			c-0.537,0.89-1.193,1.644-1.965,2.263c-0.773,0.619-1.66,1.092-2.66,1.418c-1,0.326-2.081,0.49-3.242,0.49
			c-1.424,0-2.728-0.098-3.91-0.293l5.91-17.789h2.835l-2.358,7.032l0.01,0.013l0.041-0.013c0.628-0.483,1.186-0.824,1.674-1.024
			c0.488-0.199,1.008-0.299,1.559-0.299c0.805,0,1.489,0.231,2.052,0.693c0.563,0.462,0.945,1.102,1.146,1.92
			C527.723,123.764,527.727,124.673,527.532,125.673z M524.623,125.724c0.186-0.958,0.127-1.702-0.176-2.232
			c-0.304-0.53-0.812-0.795-1.524-0.795c-0.39,0-0.825,0.132-1.303,0.394c-0.479,0.263-0.943,0.61-1.391,1.043l-2.098,6.218
			c0.032,0.008,0.204,0.019,0.516,0.032c0.311,0.013,0.526,0.019,0.645,0.019c1.39,0,2.555-0.411,3.495-1.233
			C523.724,128.348,524.337,127.199,524.623,125.724z"/>
		<path id="XMLID_238_" style="fill:#1C1C21;" d="M536.622,114.624l-5.944,17.763h-2.823l5.956-17.763H536.622z"/>
		<path id="XMLID_235_" style="fill:#1C1C21;" d="M540.565,120.638l-3.949,11.749h-2.797l3.923-11.749H540.565z M541.763,117.154
			c-0.051,0.263-0.167,0.511-0.348,0.744c-0.181,0.233-0.406,0.42-0.675,0.559c-0.269,0.14-0.539,0.21-0.81,0.21
			c-0.271,0-0.512-0.07-0.722-0.21c-0.21-0.14-0.359-0.326-0.445-0.559c-0.086-0.233-0.104-0.481-0.052-0.744
			c0.053-0.271,0.167-0.525,0.345-0.763c0.178-0.237,0.397-0.426,0.657-0.566c0.26-0.14,0.53-0.21,0.81-0.21
			c0.28,0,0.527,0.07,0.741,0.21c0.214,0.14,0.364,0.328,0.449,0.566C541.799,116.628,541.816,116.883,541.763,117.154z"/>
		<path id="XMLID_233_" style="fill:#1C1C21;" d="M551.458,123.143c-0.325-0.119-0.655-0.206-0.992-0.261
			c-0.337-0.055-0.751-0.082-1.243-0.082c-0.831,0-1.633,0.193-2.407,0.578c-0.774,0.386-1.438,0.918-1.989,1.596
			c-0.551,0.678-0.902,1.403-1.052,2.174c-0.194,1-0.069,1.776,0.375,2.327c0.444,0.551,1.166,0.826,2.166,0.826
			c0.576,0,1.113-0.068,1.61-0.203c0.497-0.135,1.102-0.36,1.816-0.674l-0.827,2.62c-1.188,0.441-2.375,0.661-3.561,0.661
			c-1.085,0-2.005-0.229-2.759-0.687c-0.755-0.457-1.28-1.112-1.576-1.964c-0.297-0.852-0.34-1.82-0.129-2.905
			c0.242-1.246,0.794-2.395,1.655-3.446c0.861-1.051,1.933-1.876,3.215-2.473c1.281-0.598,2.626-0.896,4.033-0.896
			c0.415,0,0.851,0.028,1.306,0.083s0.856,0.129,1.203,0.222L551.458,123.143z"/>
		<path id="XMLID_230_" style="fill:#1C1C21;" d="M560.966,132.387h-2.81l0.415-1.221l-0.01-0.013l-0.036-0.013
			c-1.242,0.984-2.414,1.475-3.516,1.475c-0.737,0-1.37-0.212-1.898-0.635c-0.528-0.424-0.894-1.007-1.097-1.749
			c-0.204-0.742-0.219-1.557-0.046-2.448c0.29-1.492,0.89-2.814,1.801-3.967c0.911-1.153,2.042-2.022,3.393-2.607
			c1.351-0.585,2.845-0.877,4.481-0.877c1.111,0,2.188,0.127,3.232,0.381L560.966,132.387z M561.407,122.723
			c-0.249-0.025-0.493-0.038-0.73-0.038c-0.704,0-1.365,0.106-1.982,0.318c-0.618,0.212-1.18,0.532-1.687,0.96
			c-0.507,0.428-0.954,0.975-1.342,1.64c-0.388,0.666-0.649,1.346-0.784,2.041c-0.163,0.839-0.109,1.513,0.161,2.021
			c0.27,0.509,0.714,0.763,1.333,0.763c0.398,0,0.861-0.132,1.386-0.394s1.043-0.615,1.553-1.055L561.407,122.723z"/>
	</g>
</g>
</svg>
